%YAML 1.1
%TAG !u! tag:unity3d.com,2011:
--- !u!1045 &1
EditorBuildSettings:
  m_ObjectHideFlags: 0
  serializedVersion: 2
  m_Scenes:
  - enabled: 1
    path: Assets/Scenes/Start_Scene.unity
    guid: a49fa306811124646be8ec632082636f
  - enabled: 1
    path: Assets/Scenes/Level1.unity
    guid: 2cda990e2423bbf4892e6590ba056729
  - enabled: 1
    path: Assets/Scenes/Level2.unity
    guid: 82e7a021e8f0d2f48a42ef850a53190e
  - enabled: 1
    path: Assets/Scenes/EndScene.unity
    guid: 834202ae5a783b646913f4555b65145c
  m_configObjects: {}
